-- Merging decision tree log ---
manifest
ADDED from /Users/moud/Desktop/Android/DemoIris/sample_utils/AndroidManifest.xml:2:1-15:12
INJECTED from /Users/moud/Desktop/Android/DemoIris/sample_utils/AndroidManifest.xml:2:1-15:12
INJECTED from /Users/moud/Desktop/Android/DemoIris/sample_utils/AndroidManifest.xml:2:1-15:12
INJECTED from /Users/moud/Desktop/Android/DemoIris/sample_utils/AndroidManifest.xml:2:1-15:12
INJECTED from /Users/moud/Desktop/Android/DemoIris/sample_utils/AndroidManifest.xml:2:1-15:12
INJECTED from /Users/moud/Desktop/Android/DemoIris/sample_utils/AndroidManifest.xml:2:1-15:12
INJECTED from /Users/moud/Desktop/Android/DemoIris/sample_utils/AndroidManifest.xml:2:1-15:12
	package
		ADDED from /Users/moud/Desktop/Android/DemoIris/sample_utils/AndroidManifest.xml:3:11-45
		INJECTED from /Users/moud/Desktop/Android/DemoIris/sample_utils/AndroidManifest.xml
		INJECTED from /Users/moud/Desktop/Android/DemoIris/sample_utils/AndroidManifest.xml
	android:versionName
		ADDED from /Users/moud/Desktop/Android/DemoIris/sample_utils/AndroidManifest.xml:5:11-36
		INJECTED from /Users/moud/Desktop/Android/DemoIris/sample_utils/AndroidManifest.xml
		INJECTED from /Users/moud/Desktop/Android/DemoIris/sample_utils/AndroidManifest.xml
	xmlns:android
		ADDED from /Users/moud/Desktop/Android/DemoIris/sample_utils/AndroidManifest.xml:2:11-69
	android:versionCode
		ADDED from /Users/moud/Desktop/Android/DemoIris/sample_utils/AndroidManifest.xml:4:11-34
		INJECTED from /Users/moud/Desktop/Android/DemoIris/sample_utils/AndroidManifest.xml
		INJECTED from /Users/moud/Desktop/Android/DemoIris/sample_utils/AndroidManifest.xml
uses-permission#android.permission.CAMERA
ADDED from /Users/moud/Desktop/Android/DemoIris/sample_utils/AndroidManifest.xml:6:5-64
	android:name
		ADDED from /Users/moud/Desktop/Android/DemoIris/sample_utils/AndroidManifest.xml:6:22-62
uses-permission#com.id2mp.permissions.IRIS
ADDED from /Users/moud/Desktop/Android/DemoIris/sample_utils/AndroidManifest.xml:7:5-65
	android:name
		ADDED from /Users/moud/Desktop/Android/DemoIris/sample_utils/AndroidManifest.xml:7:22-63
uses-permission#android.permission.VIBRATE
ADDED from /Users/moud/Desktop/Android/DemoIris/sample_utils/AndroidManifest.xml:8:5-65
	android:name
		ADDED from /Users/moud/Desktop/Android/DemoIris/sample_utils/AndroidManifest.xml:8:22-63
uses-permission#android.permission.WRITE_EXTERNAL_STORAGE
ADDED from /Users/moud/Desktop/Android/DemoIris/sample_utils/AndroidManifest.xml:9:5-80
	android:name
		ADDED from /Users/moud/Desktop/Android/DemoIris/sample_utils/AndroidManifest.xml:9:22-78
uses-feature#android.hardware.camera
ADDED from /Users/moud/Desktop/Android/DemoIris/sample_utils/AndroidManifest.xml:10:5-60
	android:name
		ADDED from /Users/moud/Desktop/Android/DemoIris/sample_utils/AndroidManifest.xml:10:19-57
application
ADDED from /Users/moud/Desktop/Android/DemoIris/sample_utils/AndroidManifest.xml:12:5-13:19
uses-sdk
INJECTED from /Users/moud/Desktop/Android/DemoIris/sample_utils/AndroidManifest.xml reason: use-sdk injection requested
INJECTED from /Users/moud/Desktop/Android/DemoIris/sample_utils/AndroidManifest.xml
INJECTED from /Users/moud/Desktop/Android/DemoIris/sample_utils/AndroidManifest.xml
INJECTED from /Users/moud/Desktop/Android/DemoIris/sample_utils/AndroidManifest.xml
INJECTED from /Users/moud/Desktop/Android/DemoIris/sample_utils/AndroidManifest.xml
	android:targetSdkVersion
		INJECTED from /Users/moud/Desktop/Android/DemoIris/sample_utils/AndroidManifest.xml
		ADDED from /Users/moud/Desktop/Android/DemoIris/sample_utils/AndroidManifest.xml
		INJECTED from /Users/moud/Desktop/Android/DemoIris/sample_utils/AndroidManifest.xml
	android:minSdkVersion
		INJECTED from /Users/moud/Desktop/Android/DemoIris/sample_utils/AndroidManifest.xml
		ADDED from /Users/moud/Desktop/Android/DemoIris/sample_utils/AndroidManifest.xml
		INJECTED from /Users/moud/Desktop/Android/DemoIris/sample_utils/AndroidManifest.xml
